Data Wrangling Pt1
…
Filter out only the records for category 3 or higher storms

storms |> 
  select(name, year, month, category) |>     ## select the columns we need
  filter(category >= 3)                      ## select just the rows we want

## # A tibble: 1,262 × 4
##    name      year month category
##    <chr>    <dbl> <dbl>    <dbl>
##  1 Caroline  1975     8        3
##  2 Caroline  1975     8        3
##  3 Eloise    1975     9        3
##  4 Eloise    1975     9        3
##  5 Gladys    1975    10        3
##  6 Gladys    1975    10        3
##  7 Gladys    1975    10        4
##  8 Gladys    1975    10        4
##  9 Gladys    1975    10        3
## 10 Belle     1976     8        3
## # ℹ 1,252 more rows
…
